<svg xmlns="http://www.w3.org/2000/svg" class="icon icon-tabler icon-tabler-tool" width="24" height="24" viewBox="0 0 24 24" stroke-width="3" stroke="#fff" fill="none" stroke-linecap="round" stroke-linejoin="round">
  <path stroke="none" d="M0 0h24v24H0z" fill="none"/>
  <path d="M7 10h3v-3l-3.5 -3.5a6 6 0 0 1 8 8l6 6a2 2 0 0 1 -3 3l-6 -6a6 6 0 0 1 -8 -8l3.5 3.5" />
</svg>
